{
  "beta": [],
  "release": [
    {
      "build": "2210191628",
      "date": "2022-10-19 16:28",
      "url": "https://static.typemytype.com/robofont/versionHistory/RoboFont_4.3_2210191628.dmg",
      "version": "4.3"
    },
    {
      "build": "2204191146",
      "date": "2022-04-19 11:46",
      "url": "https://static.typemytype.com/robofont/versionHistory/RoboFont_4.2_2204191146.dmg",
      "version": "4.2"
    },
    {
      "build": "2111241049",
      "date": "2021-11-24 10:49",
      "url": "https://static.typemytype.com/robofont/versionHistory/RoboFont_4.1_2111241049.dmg",
      "version": "4.1"
    },
    {
      "build": "2107151446",
      "date": "2021-07-15 14:46",
      "url": "https://static.typemytype.com/robofont/versionHistory/RoboFont_4.0_2107151446.dmg",
      "version": "4.0"
    },
    {
      "build": "2011181048",
      "date": "2020-11-18 10:48",
      "url": "https://static.typemytype.com/robofont/versionHistory/RoboFont_3.5.beta_2011181048.dmg",
      "version": "3.5.beta"
    },
    {
      "build": "2004281315",
      "date": "2020-04-28 13:15",
      "url": "https://static.typemytype.com/robofont/versionHistory/RoboFont_3.4_2004281315.dmg",
      "version": "3.4"
    },
    {
      "build": "1911061105",
      "date": "2019-11-06 11:05",
      "url": "https://static.typemytype.com/robofont/versionHistory/RoboFont_3.3_1911061105.dmg",
      "version": "3.3"
    },
    {
      "build": "1901211134",
      "date": "2019-01-21 11:34",
      "url": "https://static.typemytype.com/robofont/versionHistory/RoboFont_3.2_1901211134.dmg",
      "version": "3.2"
    },
    {
      "build": "1807052040",
      "date": "2018-07-05 20:40",
      "url": "https://static.typemytype.com/robofont/versionHistory/RoboFont_3.1_1807052040.dmg",
      "version": "3.1"
    },
    {
      "build": "1803062007",
      "date": "2018-03-06 20:07",
      "url": "https://static.typemytype.com/robofont/versionHistory/RoboFont_3.0_1803062007.dmg",
      "version": "3.0"
    },
    {
      "build": "1612061625",
      "date": "2016-12-06 16:25",
      "url": "https://static.typemytype.com/robofont/versionHistory/RoboFont_1.8_1612061625.dmg",
      "version": "1.8"
    },
    {
      "build": "1706131209",
      "date": "2017-06-13 12:09",
      "url": "https://static.typemytype.com/robofont/versionHistory/RoboFont_1.8.4_1706131209.dmg",
      "version": "1.8.4"
    },
    {
      "build": "1612102134",
      "date": "2016-12-10 21:34",
      "url": "https://static.typemytype.com/robofont/versionHistory/RoboFont_1.8.1_1612102134.dmg",
      "version": "1.8.1"
    },
    {
      "build": "1605082319",
      "date": "2016-05-08 23:19",
      "url": "https://static.typemytype.com/robofont/versionHistory/RoboFont_1.7_1605082319.dmg",
      "version": "1.7"
    },
    {
      "build": "1610111635",
      "date": "2016-10-11 16:35",
      "url": "https://static.typemytype.com/robofont/versionHistory/RoboFont_1.7.3_1610111635.dmg",
      "version": "1.7.3"
    },
    {
      "build": "1609211714",
      "date": "2016-09-21 17:14",
      "url": "https://static.typemytype.com/robofont/versionHistory/RoboFont_1.7.2_1609211714.dmg",
      "version": "1.7.2"
    },
    {
      "build": "1609211108",
      "date": "2016-09-21 11:08",
      "url": "https://static.typemytype.com/robofont/versionHistory/RoboFont_1.7.1_1609211108.dmg",
      "version": "1.7.1"
    },
    {
      "build": "1410152315",
      "date": "2014-10-15 23:15",
      "url": "https://static.typemytype.com/robofont/versionHistory/RoboFont_1.6_1410152315.dmg",
      "version": "1.6"
    },
    {
      "build": "1310082304",
      "date": "2013-10-08 23:04",
      "url": "https://static.typemytype.com/robofont/versionHistory/RoboFont_1.5_1310082304.dmg",
      "version": "1.5"
    },
    {
      "build": "1310082115",
      "date": "2013-10-08 21:15",
      "url": "https://static.typemytype.com/robofont/versionHistory/RoboFont_1.5_1310082115.dmg",
      "version": "1.5"
    },
    {
      "build": "1301142150",
      "date": "2013-01-14 21:50",
      "url": "https://static.typemytype.com/robofont/versionHistory/RoboFont_1.4_1301142150.dmg",
      "version": "1.4"
    },
    {
      "build": "1209261723",
      "date": "2012-09-26 17:23",
      "url": "https://static.typemytype.com/robofont/versionHistory/RoboFont_1.3_1209261723.dmg",
      "version": "1.3"
    },
    {
      "build": "1203042229",
      "date": "2012-03-04 22:29",
      "url": "https://static.typemytype.com/robofont/versionHistory/RoboFont_1.2_1203042229.dmg",
      "version": "1.2"
    }
  ]
}